Welch Berlekamp [(100, 0.04375290870666504), (500, 1.6128828525543213), (900, 5.3647260665893555), (1300, 10.371775150299072), (1700, 16.96015501022339), (2100, 25.82825994491577), (2500, 37.00377702713013), (2900, 55.54669213294983), (3300, 72.46589803695679), (3700, 85.3602979183197)]

Gao [(100, 0.015075206756591797), (500, 0.31243395805358887), (900, 1.10611891746521), (1300, 2.175482988357544), (1700, 3.9434070587158203), (2100, 5.563695907592773), (2500, 7.854583024978638), (2900, 11.495268106460571), (3300, 15.286017179489136), (3700, 18.69005298614502)]

